5 Lucia L – Lego Starwars Clone Wars: Are Video Games worth it?
…
video_games_deve <- video_games %>%
  group_by(developer) %>%
  summarize(num_games = n(),
            avg_score = mean(metascore, na.rm = TRUE),
            avg_price = mean(price, na.rm = TRUE),
            avg_time = mean(average_playtime, na.rm = TRUE),
            med_time = mean(median_playtime, na.rm = TRUE))%>%
  filter(num_games >= 5,
         !is.nan(avg_score),
         !is.na(developer))

video_games_deve %>% arrange(avg_score)

# A tibble: 195 × 6
   developer              num_games avg_score avg_price avg_time med_time
   <chr>                      <int>     <dbl>     <dbl>    <dbl>    <dbl>
 1 Team 6 Studios                 7      23        4.56        0        0
 2 Idea Factory                   8      45       21.2         0        0
 3 Digital Fusion Inc.            5      46        2.79        0        0
 4 3000AD                         5      47        9.99        0        0
 5 Jujubee S.A.                   5      47       13.8         0        0
 6 Krome Studios                  7      49       12.7         0        0
 7 Nomad Games                    7      51        7.42        0        0
 8 Wastelands Interactive         7      52.5     15.7         0        0
 9 Studio Saizensen               6      53       20.3         0        0
10 City Interactive               5      53.5      3.04        0        0
# ℹ 185 more rows
…
